{
  "file_generated_by": "FlutterFire CLI",
  "purpose": "FirebaseAppID & ProjectID for this Firebase app in this directory",
  "GOOGLE_APP_ID": "1:471945878474:ios:90ba5a25f466f5f25a8d33",
  "FIREBASE_PROJECT_ID": "m5mtn-64bff",
  "GCM_SENDER_ID": "471945878474"
}